Data Analysis on the Well-being of Canadians from 2017 GSS Data Set
…
The source data we perform analysis on is the the 2017 GSS dataset. The methods used to collect and process data are stratified sampling and simple random sampling. First, 27 stratas were created and within each strata simple random sample without replacement was performed to randomly select households and then one respondent in each chosen household.

Due to respondent language barriers or other personal reasons, non-response scenarios are present in the dataset. The non-response data were collected and categorized for further analysis. For respondents who answered the survey phone call but were unwilling to answer certain questions during the survey, the institution was able to impute the value based on data from other sources. If unable to find information from other sources, these will be left as NA/Not willing to participate in the survey dataset.

As it can be seen from the preview of the data above and skimmed summary of all the labels avaiable, the dataset consists of 81 labels and there are 20602 samples per label. One of the primary advantage of using this dataset is that it consist of sufficient information for us to develop and fit a statistically significant regression model on the dataset and analyse the relationship between some of the labels. The sample size is sufficiently large to produce estimates and we can take multiple explanatory variables for our response variables so that our model will be unbiased and precise and show a better depiction of the target population.

For our model, the target population is a sample size of approximately average hours worked, life feelings score, self rate mental health and age of 20,000 respondents. The frame population are all the citizens of Canada who are eligible to respond to the survey using Statistics Canadas common telephone frame. Since the target population is so large, the sampled population are 1000 randomly selected respondent from entire dataset with given labels.

One disadvantage of using this dataset is that the there too many missing values for most of the labels and variables, and the complete_rate is also quite low overall. This implies there are many variables in the dataset that involves sharing sensitive information and people wont feel confident sharing them while filling out the survey. Therefore, our anaylsis for some labels can be a bit skewed or not statistically significant. Also many people can lie when responding to some general life related labels like self_rated_mental_health or feeling_life, and that also can lead to poor or biased analyis of the dataset.

We selected our sample population by only taking randomly selected 1000 respondents and their feelings_life, average_hours_worked, income_respondent, self_rated_mental_health, age and hh_size labels from 20000 respondents. Since many of them can consist of incomplete samples for some of the labels, we will remove them from the dataset by filtering them out and then randomly sample out 1000 from the filtered dataset to get samples with complete labels.

## # A tibble: 1,000 x 6
## # Groups:   feelings_life, age [824]
##    feelings_life average_hours_w~ income_responde~ self_rated_ment~   age
##            <int> <chr>            <chr>            <chr>            <dbl>
##  1             9 0.1 to 29.9 hou~ Less than $25,0~ Very good         15  
##  2             6 0.1 to 29.9 hou~ Less than $25,0~ Good              15.6
##  3             9 30.0 to 40.0 ho~ Less than $25,0~ Excellent         15.7
##  4             9 0.1 to 29.9 hou~ Less than $25,0~ Excellent         15.8
##  5             7 0.1 to 29.9 hou~ Less than $25,0~ Good              16  
##  6             8 40.1 to 50.0 ho~ Less than $25,0~ Very good         16.3
##  7            10 0.1 to 29.9 hou~ Less than $25,0~ Excellent         16.8
##  8            10 0.1 to 29.9 hou~ Less than $25,0~ Excellent         16.8
##  9             8 0.1 to 29.9 hou~ Less than $25,0~ Very good         16.9
## 10             7 30.0 to 40.0 ho~ Less than $25,0~ Very good         17.3
## # ... with 990 more rows, and 1 more variable: hh_size <int>

When we arrange our sample population with respect to age, we see that younger people (15 to 25) have a frequent higher feelings_life score ranging from 8 to 10 compared to the older people (50 to 80) who have lower feelings_life score (6 to 8) showing a negative relationship between the two variables.

## # A tibble: 1,000 x 6
## # Groups:   feelings_life, average_hours_worked [35]
##    feelings_life average_hours_w~ income_responde~ self_rated_ment~   age
##            <int> <chr>            <chr>            <chr>            <dbl>
##  1            10 0.1 to 29.9 hou~ Less than $25,0~ Very good         47  
##  2            10 0.1 to 29.9 hou~ Less than $25,0~ Good              49.4
##  3            10 0.1 to 29.9 hou~ Less than $25,0~ Excellent         47.1
##  4             9 0.1 to 29.9 hou~ Less than $25,0~ Excellent         38.9
##  5             7 0.1 to 29.9 hou~ $25,000 to $49,~ Excellent         69.6
##  6             8 0.1 to 29.9 hou~ Less than $25,0~ Excellent         23.8
##  7             9 0.1 to 29.9 hou~ Less than $25,0~ Very good         17.5
##  8             7 0.1 to 29.9 hou~ $25,000 to $49,~ Fair              61.2
##  9            10 0.1 to 29.9 hou~ $50,000 to $74,~ Good              32.3
## 10             8 0.1 to 29.9 hou~ Less than $25,0~ Excellent         17.7
## # ... with 990 more rows, and 1 more variable: hh_size <int>

When we arrange our sample population with respect to average hours worked, we see that people who work less hours on average (1 to 30) have a frequent higher feeling_life score ranging from 8 to 10 compared to the people who work more hours on average (40 and more) who have a lower feelings_life score (5 to 8) showing a positive relationship between the two variables.

## # A tibble: 1,000 x 6
## # Groups:   feelings_life, income_respondent [45]
##    feelings_life average_hours_w~ income_responde~ self_rated_ment~   age
##            <int> <chr>            <chr>            <chr>            <dbl>
##  1             9 30.0 to 40.0 ho~ $100,000 to $ 1~ Very good         56  
##  2             8 50.1 hours and ~ $100,000 to $ 1~ Good              48.6
##  3             8 30.0 to 40.0 ho~ $100,000 to $ 1~ Very good         59  
##  4             8 40.1 to 50.0 ho~ $100,000 to $ 1~ Very good         57.1
##  5             8 50.1 hours and ~ $100,000 to $ 1~ Good              64  
##  6             9 40.1 to 50.0 ho~ $100,000 to $ 1~ Very good         36.5
##  7             8 30.0 to 40.0 ho~ $100,000 to $ 1~ Very good         43.2
##  8             7 30.0 to 40.0 ho~ $100,000 to $ 1~ Very good         48.9
##  9             9 50.1 hours and ~ $100,000 to $ 1~ Very good         58.3
## 10            10 30.0 to 40.0 ho~ $100,000 to $ 1~ Very good         59.3
## # ... with 990 more rows, and 1 more variable: hh_size <int>

When we arrange our sample population with respect to income_respondent, we see that people who are in a higher income bracket ($100k, $129k) have a frequent higher feelings_life score ranging from 8 to 10 compared to the people who are in lower income bracket (less than $25k) who have a lower feelings_life score (5 to 8) showing a positive relationship between the two variables.

## # A tibble: 1,000 x 6
## # Groups:   feelings_life, self_rated_mental_health [38]
##    feelings_life average_hours_w~ income_responde~ self_rated_ment~   age
##            <int> <chr>            <chr>            <chr>            <dbl>
##  1             8 30.0 to 40.0 ho~ $25,000 to $49,~ Excellent         65  
##  2             8 50.1 hours and ~ $50,000 to $74,~ Excellent         55.5
##  3            10 30.0 to 40.0 ho~ $75,000 to $99,~ Excellent         40.4
##  4            10 30.0 to 40.0 ho~ Less than $25,0~ Excellent         58.3
##  5             9 40.1 to 50.0 ho~ $125,000 and mo~ Excellent         43  
##  6            10 30.0 to 40.0 ho~ $75,000 to $99,~ Excellent         31.6
##  7            10 30.0 to 40.0 ho~ $125,000 and mo~ Excellent         39.6
##  8            10 0.1 to 29.9 hou~ Less than $25,0~ Excellent         47.1
##  9             9 0.1 to 29.9 hou~ Less than $25,0~ Excellent         38.9
## 10             7 0.1 to 29.9 hou~ $25,000 to $49,~ Excellent         69.6
## # ... with 990 more rows, and 1 more variable: hh_size <int>

When we arrange our sample population with respect to income_respondent, we see that people who are in higher income bracket ($100k, $129k) have a frequent higher feeling_life score ranging from 8 to 10 compared to the people who are in lower income bracket (less than $25k) who have a lower feelings_life score (5 to 8) showing a positive relationship between the two variables.

## # A tibble: 1,000 x 6
## # Groups:   feelings_life, hh_size [45]
##    feelings_life average_hours_w~ income_responde~ self_rated_ment~   age
##            <int> <chr>            <chr>            <chr>            <dbl>
##  1             9 30.0 to 40.0 ho~ $100,000 to $ 1~ Very good         56  
##  2            10 30.0 to 40.0 ho~ Less than $25,0~ Excellent         58.3
##  3             7 30.0 to 40.0 ho~ $25,000 to $49,~ Fair              23.4
##  4             8 40.1 to 50.0 ho~ $75,000 to $99,~ Very good         47  
##  5             2 40.1 to 50.0 ho~ $50,000 to $74,~ Fair              58.3
##  6             7 0.1 to 29.9 hou~ $25,000 to $49,~ Excellent         69.6
##  7             8 30.0 to 40.0 ho~ $75,000 to $99,~ Excellent         52.5
##  8            10 40.1 to 50.0 ho~ $75,000 to $99,~ Excellent         33.7
##  9             8 30.0 to 40.0 ho~ $50,000 to $74,~ Excellent         68.3
## 10             7 0.1 to 29.9 hou~ $25,000 to $49,~ Fair              61.2
## # ... with 990 more rows, and 1 more variable: hh_size <int>

When we arrange our sample population with respect to hh_size, we see that people with bigger house size (4 to 6) have a frequent higher feeling_life score ranging from 8 to 10 compared to the people with smaller house size (1 to 3) who have a lower feelings_life score (5 to 8) showing a positive relationship between the two variables.

## # A tibble: 1,000 x 6
## # Groups:   feelings_life, self_rated_mental_health [38]
##    feelings_life average_hours_w~ income_responde~ self_rated_ment~   age
##            <int> <chr>            <chr>            <chr>            <dbl>
##  1             0 30.0 to 40.0 ho~ $125,000 and mo~ Excellent         37.4
##  2             2 40.1 to 50.0 ho~ $50,000 to $74,~ Fair              58.3
##  3             2 50.1 hours and ~ $50,000 to $74,~ Poor              58.1
##  4             2 0.1 to 29.9 hou~ $50,000 to $74,~ Fair              32  
##  5             2 30.0 to 40.0 ho~ $25,000 to $49,~ Poor              32.6
##  6             2 30.0 to 40.0 ho~ $50,000 to $74,~ Good              44  
##  7             3 30.0 to 40.0 ho~ Less than $25,0~ Fair              64.3
##  8             3 40.1 to 50.0 ho~ $25,000 to $49,~ Good              66.9
##  9             3 0.1 to 29.9 hou~ Less than $25,0~ Good              19.4
## 10             3 0.1 to 29.9 hou~ Less than $25,0~ Poor              24  
## # ... with 990 more rows, and 1 more variable: hh_size <int>
…
